,id,latitud,longitud,cluster_label
0,1,-2.0873150000000003,-79.920315,0
1,1,-2.0873150000000003,-79.920339,0
2,1,-2.0873169999999996,-79.920357,0
3,1,-2.087129,-79.92016,0
4,1,-2.087129,-79.92016,0
5,1,-2.086994,-79.92032900000001,0
