,id,latitud,longitud,cluster_label
0,1,-2.1789669999999997,-79.899857,6
1,1,-2.178892,-79.899849,6
2,1,-2.179209,-79.89914,2
3,1,-2.179559,-79.898514,4
4,1,-2.179709,-79.898247,4
5,1,-2.179781,-79.898087,4
6,1,-2.17996,-79.897675,7
7,1,-2.179973,-79.897645,7
8,1,-2.180228,-79.897118,1
9,1,-2.182858,-79.895829,5
10,1,-2.182987,-79.895775,5
11,1,-2.180311,-79.896973,1
12,1,-2.180371,-79.896935,1
13,1,-2.180429,-79.896897,1
14,1,-2.180677,-79.896752,1
15,1,-2.180966,-79.896637,1
16,1,-2.18185,-79.89625600000001,3
17,1,-2.181969,-79.896363,3
18,1,-2.18168,-79.896493,3
19,1,-2.181572,-79.896538,3
20,1,-2.18168,-79.896493,3
21,1,-2.181969,-79.896363,3
22,1,-2.18185,-79.89625600000001,3
23,1,-2.183584,-79.895524,0
24,1,-2.1836189999999998,-79.89550799999999,0
