,id,latitud,longitud,cluster_label
0,1,-2.1789669999999997,-79.899857,3
1,1,-2.178892,-79.899849,3
2,1,-2.179209,-79.89914,3
3,1,-2.179559,-79.898514,1
4,1,-2.179709,-79.898247,1
5,1,-2.179781,-79.898087,1
6,1,-2.17996,-79.897675,1
7,1,-2.179973,-79.897645,1
8,1,-2.180228,-79.897118,2
9,1,-2.182858,-79.895829,5
10,1,-2.182987,-79.895775,5
11,1,-2.180311,-79.896973,2
12,1,-2.180371,-79.896935,2
13,1,-2.180429,-79.896897,2
14,1,-2.180677,-79.896752,2
15,1,-2.180966,-79.896637,2
16,1,-2.18185,-79.89625600000001,0
17,1,-2.181969,-79.896363,0
18,1,-2.18168,-79.896493,0
19,1,-2.181572,-79.896538,0
20,1,-2.18168,-79.896493,0
21,1,-2.181969,-79.896363,0
22,1,-2.18185,-79.89625600000001,0
23,1,-2.183584,-79.895524,4
24,1,-2.1836189999999998,-79.89550799999999,4
